\babel@toc {english}{}
\contentsline {section}{\numberline {1}Part 1}{1}
\contentsline {section}{\numberline {2}Part2}{2}
\contentsline {subsection}{\numberline {2.1}Preliminary Hypothesis}{2}
\contentsline {subsection}{\numberline {2.2}Data Preprocessing}{2}
\contentsline {subsection}{\numberline {2.3}Modest Template}{4}
\contentsline {subsection}{\numberline {2.4}Model Checking }{6}
\contentsline {subsection}{\numberline {2.5}Final Results}{7}
