\relax 
\babel@aux{english}{}
\@writefile{toc}{\contentsline {section}{\numberline {1}Part 1}{1}}
\@writefile{toc}{\contentsline {section}{\numberline {2}Part2}{2}}
\@writefile{toc}{\contentsline {subsection}{\numberline {2.1}Preliminary Hypothesis}{2}}
\@writefile{toc}{\contentsline {subsection}{\numberline {2.2}Data Preprocessing}{2}}
\@writefile{lof}{\contentsline {figure}{\numberline {1}{\ignorespaces Example of a generated \texttt  {csv} file}}{3}}
\newlabel{fig:csv}{{1}{3}}
\newlabel{lst:energy_python}{{1}{3}}
\@writefile{lol}{\contentsline {lstlisting}{\numberline {1}Function to compute energy required by a job}{3}}
\@writefile{toc}{\contentsline {subsection}{\numberline {2.3}Modest Template}{4}}
\newlabel{lst:header}{{2}{5}}
\@writefile{lol}{\contentsline {lstlisting}{\numberline {2}Header Template}{5}}
\newlabel{lst:jobTemplate}{{3}{5}}
\@writefile{lol}{\contentsline {lstlisting}{\numberline {3}Job Template}{5}}
\@writefile{lol}{\contentsline {lstlisting}{\numberline {4}Last Job Template}{6}}
\@writefile{toc}{\contentsline {subsection}{\numberline {2.4}Model Checking }{6}}
\@writefile{toc}{\contentsline {subsection}{\numberline {2.5}Final Results}{7}}
\@writefile{lof}{\contentsline {figure}{\numberline {2}{\ignorespaces The Scheduler}}{7}}
\newlabel{fig:thescheduler}{{2}{7}}
\@writefile{lof}{\contentsline {figure}{\numberline {3}{\ignorespaces Energy Plot}}{8}}
\@writefile{lof}{\contentsline {figure}{\numberline {4}{\ignorespaces Scheduler validation by means of SimuLink}}{9}}
