digraph G {
	rankdir = TB;
	bgcolor = transparent;
	node [style = filled, fillcolor = white];
__global_vars__ [shape=plaintext, fillcolor="transparent", label=<<table border="0"><tr><td align="left" valign="top" colspan="2">Global variables:</td></tr><tr><td align="left" valign="top">count</td><td align="left" valign="top" balign="left">= 0</td></tr><tr><td align="left" valign="top">did_c0</td><td align="left" valign="top" balign="left">= false</td></tr><tr><td align="left" valign="top">did_c1</td><td align="left" valign="top" balign="left">= true</td></tr><tr><td align="left" valign="top">did_c2</td><td align="left" valign="top" balign="left">= false</td></tr></table>>];
	0 [shape=box, label=<do {<br align="left" />:: a;<br align="left" /> b {= count = min(count + 4, 20), did_c2 = true =}<br align="left" />:: when(count &gt; 10 &amp;&amp; did_c0) b {= count = min(count + 1, 20) =};<br align="left" /> d;<br align="left" /> break<br align="left" />};<br align="left" />do {<br align="left" />:: c {= did_c0 = true, did_c1 = false =}<br align="left" />}<br align="left" />>];
	1 [shape=box, label=<auxdo<br align="left" />{<br align="left" /> b {= count = min(count + 4, 20), did_c2 = true =}<br align="left" />}<br align="left" />{<br align="left" /> do {<br align="left" /> :: a;<br align="left" /> b {= count = min(count + 4, 20), did_c2 = true =}<br align="left" /> :: when(count &gt; 10 &amp;&amp; did_c0) b {= count = min(count + 1, 20) =};<br align="left" /> d;<br align="left" /> break<br align="left" /> }<br align="left" />}<br align="left" />;<br align="left" />do {<br align="left" />:: c {= did_c0 = true, did_c1 = false =}<br align="left" />}<br align="left" />>];
	0 -> 1 [label=<a<br align="left" />>];
	1 -> 0 [label=<b, {= count = min(count + 4, 20), did_c2 = true =}<br align="left" />>];
	2 [shape=box, label=<auxdo<br align="left" />{<br align="left" /> d;<br align="left" /> break<br align="left" />}<br align="left" />{<br align="left" /> do {<br align="left" /> :: a;<br align="left" /> b {= count = min(count + 4, 20), did_c2 = true =}<br align="left" /> :: when(count &gt; 10 &amp;&amp; did_c0) b {= count = min(count + 1, 20) =};<br align="left" /> d;<br align="left" /> break<br align="left" /> }<br align="left" />}<br align="left" />;<br align="left" />do {<br align="left" />:: c {= did_c0 = true, did_c1 = false =}<br align="left" />}<br align="left" />>];
	0 -> 2 [label=<count &gt; 10 &amp;&amp; did_c0, b, {= count = min(count + 1, 20) =}<br align="left" />>];
	3 [shape=box, label=<auxdo<br align="left" />{<br align="left" /> break<br align="left" />}<br align="left" />{<br align="left" /> do {<br align="left" /> :: a;<br align="left" /> b {= count = min(count + 4, 20), did_c2 = true =}<br align="left" /> :: when(count &gt; 10 &amp;&amp; did_c0) b {= count = min(count + 1, 20) =};<br align="left" /> d;<br align="left" /> break<br align="left" /> }<br align="left" />}<br align="left" />;<br align="left" />do {<br align="left" />:: c {= did_c0 = true, did_c1 = false =}<br align="left" />}<br align="left" />>];
	2 -> 3 [label=<d<br align="left" />>];
	4 [shape=box, label=<do {<br align="left" />:: c {= did_c0 = true, did_c1 = false =}<br align="left" />}<br align="left" />>];
	3 -> 4 [label=<τ<br align="left" />>];
	4 -> 4 [label=<c, {= did_c0 = true, did_c1 = false =}<br align="left" />>];
	_____initial5 [shape=none, style=invisible, label=""];
	_____initial5 -> 0 [label=<true<br align="left" />>];

}
