digraph G {
	rankdir = TB;
	bgcolor = transparent;
	node [style = filled, fillcolor = white];
__global_vars__ [shape=plaintext, fillcolor="transparent", label=<<table border="0"><tr><td align="left" valign="top" colspan="2">Global variables:</td></tr><tr><td align="left" valign="top">success</td><td align="left" valign="top" balign="left">= false</td></tr><tr><td align="left" valign="top">battery_level</td><td align="left" valign="top" balign="left">= 0</td></tr><tr><td align="left" valign="top">jobs</td><td align="left" valign="top" balign="left">= [ 0, 0, 1, 0, 0, 0 ]</td></tr><tr><td align="left" valign="top">jobs_starttimes</td><td align="left" valign="top" balign="left">= [ 2707, 5368, 6837, 8522, 11205, 14261 ]</td></tr><tr><td align="left" valign="top">skippedJob</td><td align="left" valign="top" balign="left">= 0</td></tr></table>>];
	0 [shape=box, label=<JobProvider()<br align="left" />>];
	1 [shape=box, label=<constrain(battery_level &lt;= 80) idle;<br align="left" />when(t &gt;= jobs_starttimes[0]) alt {<br align="left" />:: when(battery_level &gt; 40) doJob(jobs[0])<br align="left" />:: when(battery_level &lt;= 40) skipJob {= skippedJob = 1 =};<br align="left" /> idle<br align="left" />};<br align="left" />when(t &gt;= jobs_starttimes[1]) alt {<br align="left" />:: when(battery_level &gt; 40) doJob(jobs[1])<br align="left" />:: when(battery_level &lt;= 40) skipJob {= skippedJob = 1 =};<br align="left" /> idle<br align="left" />};<br align="left" />when(t &gt;= jobs_starttimes[2]) alt {<br align="left" />:: when(battery_level &gt; 40) doJob(jobs[2])<br align="left" />:: when(battery_level &lt;= 40) skipJob {= skippedJob = 1 =};<br align="left" /> idle<br align="left" />};<br align="left" />alt {<br align="left" />:: when(battery_level &gt;= 40) Suc {= success = true =};<br align="left" /> stop<br align="left" />:: when(battery_level &lt; 40) Fail;<br align="left" /> stop<br align="left" />}<br align="left" />>];
	0 -> 1 [label=<init, {= battery_level = 80 =}<br align="left" />>];
	2 [shape=box, label=<when(t &gt;= jobs_starttimes[0]) alt {<br align="left" />:: when(battery_level &gt; 40) doJob(jobs[0])<br align="left" />:: when(battery_level &lt;= 40) skipJob {= skippedJob = 1 =};<br align="left" /> idle<br align="left" />};<br align="left" />when(t &gt;= jobs_starttimes[1]) alt {<br align="left" />:: when(battery_level &gt; 40) doJob(jobs[1])<br align="left" />:: when(battery_level &lt;= 40) skipJob {= skippedJob = 1 =};<br align="left" /> idle<br align="left" />};<br align="left" />when(t &gt;= jobs_starttimes[2]) alt {<br align="left" />:: when(battery_level &gt; 40) doJob(jobs[2])<br align="left" />:: when(battery_level &lt;= 40) skipJob {= skippedJob = 1 =};<br align="left" /> idle<br align="left" />};<br align="left" />alt {<br align="left" />:: when(battery_level &gt;= 40) Suc {= success = true =};<br align="left" /> stop<br align="left" />:: when(battery_level &lt; 40) Fail;<br align="left" /> stop<br align="left" />}<br align="left" />>];
	1 -> 2 [label=<idle, {= jid = jobs[0], c = 0 =}<br align="left" />>];
	3 [shape=box, label=<alt {<br align="left" />:: when(jid == 0) lband {= battery_level = battery_level - 10 =};<br align="left" /> when(c &gt;= 5570) break<br align="left" />:: when(jid == 1) xband {= battery_level = battery_level - 5 =};<br align="left" /> when(c &gt;= 517) break<br align="left" />};<br align="left" />when(t &gt;= jobs_starttimes[1]) alt {<br align="left" />:: when(battery_level &gt; 40) doJob(jobs[1])<br align="left" />:: when(battery_level &lt;= 40) skipJob {= skippedJob = 1 =};<br align="left" /> idle<br align="left" />};<br align="left" />when(t &gt;= jobs_starttimes[2]) alt {<br align="left" />:: when(battery_level &gt; 40) doJob(jobs[2])<br align="left" />:: when(battery_level &lt;= 40) skipJob {= skippedJob = 1 =};<br align="left" /> idle<br align="left" />};<br align="left" />alt {<br align="left" />:: when(battery_level &gt;= 40) Suc {= success = true =};<br align="left" /> stop<br align="left" />:: when(battery_level &lt; 40) Fail;<br align="left" /> stop<br align="left" />}<br align="left" />>];
	2 -> 3 [label=<battery_level &gt; 40 &amp;&amp; t &gt;= jobs_starttimes[0], check, {= c = 0 =}<br align="left" />>];
	4 [shape=box, label=<when(c &gt;= 5570) break;<br align="left" />when(t &gt;= jobs_starttimes[1]) alt {<br align="left" />:: when(battery_level &gt; 40) doJob(jobs[1])<br align="left" />:: when(battery_level &lt;= 40) skipJob {= skippedJob = 1 =};<br align="left" /> idle<br align="left" />};<br align="left" />when(t &gt;= jobs_starttimes[2]) alt {<br align="left" />:: when(battery_level &gt; 40) doJob(jobs[2])<br align="left" />:: when(battery_level &lt;= 40) skipJob {= skippedJob = 1 =};<br align="left" /> idle<br align="left" />};<br align="left" />alt {<br align="left" />:: when(battery_level &gt;= 40) Suc {= success = true =};<br align="left" /> stop<br align="left" />:: when(battery_level &lt; 40) Fail;<br align="left" /> stop<br align="left" />}<br align="left" />>];
	3 -> 4 [label=<jid == 0, lband, {= battery_level = battery_level - 10, jid = 0 =}<br align="left" />>];
	5 [shape=box, label=<when(t &gt;= jobs_starttimes[1]) alt {<br align="left" />:: when(battery_level &gt; 40) doJob(jobs[1])<br align="left" />:: when(battery_level &lt;= 40) skipJob {= skippedJob = 1 =};<br align="left" /> idle<br align="left" />};<br align="left" />when(t &gt;= jobs_starttimes[2]) alt {<br align="left" />:: when(battery_level &gt; 40) doJob(jobs[2])<br align="left" />:: when(battery_level &lt;= 40) skipJob {= skippedJob = 1 =};<br align="left" /> idle<br align="left" />};<br align="left" />alt {<br align="left" />:: when(battery_level &gt;= 40) Suc {= success = true =};<br align="left" /> stop<br align="left" />:: when(battery_level &lt; 40) Fail;<br align="left" /> stop<br align="left" />}<br align="left" />>];
	4 -> 5 [label=<c &gt;= 5570, break, {= jid = jobs[1], c = 0 =}<br align="left" />>];
	6 [shape=box, label=<alt {<br align="left" />:: when(jid == 0) lband {= battery_level = battery_level - 10 =};<br align="left" /> when(c &gt;= 5570) break<br align="left" />:: when(jid == 1) xband {= battery_level = battery_level - 5 =};<br align="left" /> when(c &gt;= 517) break<br align="left" />};<br align="left" />when(t &gt;= jobs_starttimes[2]) alt {<br align="left" />:: when(battery_level &gt; 40) doJob(jobs[2])<br align="left" />:: when(battery_level &lt;= 40) skipJob {= skippedJob = 1 =};<br align="left" /> idle<br align="left" />};<br align="left" />alt {<br align="left" />:: when(battery_level &gt;= 40) Suc {= success = true =};<br align="left" /> stop<br align="left" />:: when(battery_level &lt; 40) Fail;<br align="left" /> stop<br align="left" />}<br align="left" />>];
	5 -> 6 [label=<battery_level &gt; 40 &amp;&amp; t &gt;= jobs_starttimes[1], check, {= c = 0 =}<br align="left" />>];
	7 [shape=box, label=<when(c &gt;= 5570) break;<br align="left" />when(t &gt;= jobs_starttimes[2]) alt {<br align="left" />:: when(battery_level &gt; 40) doJob(jobs[2])<br align="left" />:: when(battery_level &lt;= 40) skipJob {= skippedJob = 1 =};<br align="left" /> idle<br align="left" />};<br align="left" />alt {<br align="left" />:: when(battery_level &gt;= 40) Suc {= success = true =};<br align="left" /> stop<br align="left" />:: when(battery_level &lt; 40) Fail;<br align="left" /> stop<br align="left" />}<br align="left" />>];
	6 -> 7 [label=<jid == 0, lband, {= battery_level = battery_level - 10, jid = 0 =}<br align="left" />>];
	8 [shape=box, label=<when(t &gt;= jobs_starttimes[2]) alt {<br align="left" />:: when(battery_level &gt; 40) doJob(jobs[2])<br align="left" />:: when(battery_level &lt;= 40) skipJob {= skippedJob = 1 =};<br align="left" /> idle<br align="left" />};<br align="left" />alt {<br align="left" />:: when(battery_level &gt;= 40) Suc {= success = true =};<br align="left" /> stop<br align="left" />:: when(battery_level &lt; 40) Fail;<br align="left" /> stop<br align="left" />}<br align="left" />>];
	7 -> 8 [label=<c &gt;= 5570, break, {= jid = jobs[2], c = 0 =}<br align="left" />>];
	9 [shape=box, label=<alt {<br align="left" />:: when(jid == 0) lband {= battery_level = battery_level - 10 =};<br align="left" /> when(c &gt;= 5570) break<br align="left" />:: when(jid == 1) xband {= battery_level = battery_level - 5 =};<br align="left" /> when(c &gt;= 517) break<br align="left" />};<br align="left" />alt {<br align="left" />:: when(battery_level &gt;= 40) Suc {= success = true =};<br align="left" /> stop<br align="left" />:: when(battery_level &lt; 40) Fail;<br align="left" /> stop<br align="left" />}<br align="left" />>];
	8 -> 9 [label=<battery_level &gt; 40 &amp;&amp; t &gt;= jobs_starttimes[2], check, {= c = 0 =}<br align="left" />>];
	10 [shape=box, label=<when(c &gt;= 5570) break;<br align="left" />alt {<br align="left" />:: when(battery_level &gt;= 40) Suc {= success = true =};<br align="left" /> stop<br align="left" />:: when(battery_level &lt; 40) Fail;<br align="left" /> stop<br align="left" />}<br align="left" />>];
	9 -> 10 [label=<jid == 0, lband, {= battery_level = battery_level - 10, jid = 0 =}<br align="left" />>];
	11 [shape=box, label=<alt {<br align="left" />:: when(battery_level &gt;= 40) Suc {= success = true =};<br align="left" /> stop<br align="left" />:: when(battery_level &lt; 40) Fail;<br align="left" /> stop<br align="left" />}<br align="left" />>];
	10 -> 11 [label=<c &gt;= 5570, break<br align="left" />>];
	12 [shape=box, label=<stop<br align="left" />>];
	11 -> 12 [label=<battery_level &gt;= 40, Suc, {= success = true =}<br align="left" />>];
	11 -> 12 [label=<battery_level &lt; 40, Fail<br align="left" />>];
	13 [shape=box, label=<when(c &gt;= 517) break;<br align="left" />alt {<br align="left" />:: when(battery_level &gt;= 40) Suc {= success = true =};<br align="left" /> stop<br align="left" />:: when(battery_level &lt; 40) Fail;<br align="left" /> stop<br align="left" />}<br align="left" />>];
	9 -> 13 [label=<jid == 1, xband, {= battery_level = battery_level - 5, jid = 0 =}<br align="left" />>];
	13 -> 11 [label=<c &gt;= 517, break<br align="left" />>];
	14 [shape=box, label=<idle;<br align="left" />alt {<br align="left" />:: when(battery_level &gt;= 40) Suc {= success = true =};<br align="left" /> stop<br align="left" />:: when(battery_level &lt; 40) Fail;<br align="left" /> stop<br align="left" />}<br align="left" />>];
	8 -> 14 [label=<battery_level &lt;= 40 &amp;&amp; t &gt;= jobs_starttimes[2], skipJob, {= skippedJob = 1, jid = 0 =}<br align="left" />>];
	14 -> 11 [label=<idle<br align="left" />>];
	15 [shape=box, label=<when(c &gt;= 517) break;<br align="left" />when(t &gt;= jobs_starttimes[2]) alt {<br align="left" />:: when(battery_level &gt; 40) doJob(jobs[2])<br align="left" />:: when(battery_level &lt;= 40) skipJob {= skippedJob = 1 =};<br align="left" /> idle<br align="left" />};<br align="left" />alt {<br align="left" />:: when(battery_level &gt;= 40) Suc {= success = true =};<br align="left" /> stop<br align="left" />:: when(battery_level &lt; 40) Fail;<br align="left" /> stop<br align="left" />}<br align="left" />>];
	6 -> 15 [label=<jid == 1, xband, {= battery_level = battery_level - 5, jid = 0 =}<br align="left" />>];
	15 -> 8 [label=<c &gt;= 517, break, {= jid = jobs[2], c = 0 =}<br align="left" />>];
	16 [shape=box, label=<idle;<br align="left" />when(t &gt;= jobs_starttimes[2]) alt {<br align="left" />:: when(battery_level &gt; 40) doJob(jobs[2])<br align="left" />:: when(battery_level &lt;= 40) skipJob {= skippedJob = 1 =};<br align="left" /> idle<br align="left" />};<br align="left" />alt {<br align="left" />:: when(battery_level &gt;= 40) Suc {= success = true =};<br align="left" /> stop<br align="left" />:: when(battery_level &lt; 40) Fail;<br align="left" /> stop<br align="left" />}<br align="left" />>];
	5 -> 16 [label=<battery_level &lt;= 40 &amp;&amp; t &gt;= jobs_starttimes[1], skipJob, {= skippedJob = 1, jid = 0 =}<br align="left" />>];
	16 -> 8 [label=<idle, {= jid = jobs[2], c = 0 =}<br align="left" />>];
	17 [shape=box, label=<when(c &gt;= 517) break;<br align="left" />when(t &gt;= jobs_starttimes[1]) alt {<br align="left" />:: when(battery_level &gt; 40) doJob(jobs[1])<br align="left" />:: when(battery_level &lt;= 40) skipJob {= skippedJob = 1 =};<br align="left" /> idle<br align="left" />};<br align="left" />when(t &gt;= jobs_starttimes[2]) alt {<br align="left" />:: when(battery_level &gt; 40) doJob(jobs[2])<br align="left" />:: when(battery_level &lt;= 40) skipJob {= skippedJob = 1 =};<br align="left" /> idle<br align="left" />};<br align="left" />alt {<br align="left" />:: when(battery_level &gt;= 40) Suc {= success = true =};<br align="left" /> stop<br align="left" />:: when(battery_level &lt; 40) Fail;<br align="left" /> stop<br align="left" />}<br align="left" />>];
	3 -> 17 [label=<jid == 1, xband, {= battery_level = battery_level - 5, jid = 0 =}<br align="left" />>];
	17 -> 5 [label=<c &gt;= 517, break, {= jid = jobs[1], c = 0 =}<br align="left" />>];
	18 [shape=box, label=<idle;<br align="left" />when(t &gt;= jobs_starttimes[1]) alt {<br align="left" />:: when(battery_level &gt; 40) doJob(jobs[1])<br align="left" />:: when(battery_level &lt;= 40) skipJob {= skippedJob = 1 =};<br align="left" /> idle<br align="left" />};<br align="left" />when(t &gt;= jobs_starttimes[2]) alt {<br align="left" />:: when(battery_level &gt; 40) doJob(jobs[2])<br align="left" />:: when(battery_level &lt;= 40) skipJob {= skippedJob = 1 =};<br align="left" /> idle<br align="left" />};<br align="left" />alt {<br align="left" />:: when(battery_level &gt;= 40) Suc {= success = true =};<br align="left" /> stop<br align="left" />:: when(battery_level &lt; 40) Fail;<br align="left" /> stop<br align="left" />}<br align="left" />>];
	2 -> 18 [label=<battery_level &lt;= 40 &amp;&amp; t &gt;= jobs_starttimes[0], skipJob, {= skippedJob = 1, jid = 0 =}<br align="left" />>];
	18 -> 5 [label=<idle, {= jid = jobs[1], c = 0 =}<br align="left" />>];
	_____initial19 [shape=none, style=invisible, label=""];
	_____initial19 -> 0 [label=<t == 0 &amp;&amp; c == 0 &amp;&amp; jid == 0<br align="left" />>];

}
