ID, Job Type,Start Time (UTCG),Stop Time (UTCG),Relative Start Time(s) ,Relative Stop Time(s), Duration (sec),Exposed to sun till start job(sec),Exposed to sun till stop job(sec) ,Insulation Duration in Exec (sec)  , Skip If, Job Energy [mJ]
0,xband,2016/03/21 00:42:53.921,2016/03/21 00:52:29.314,0,575,575,0,0,0,,8587050
1,uhf,2016/03/21 01:01:27.814,2016/03/21 01:11:07.364,1113,1693,579,0,0,0,,3259020
2,uhf,2016/03/21 02:36:27.664,2016/03/21 02:46:06.963,6813,7393,579,3503,3660,157,,2364120
3,uhf,2016/03/21 04:11:47.306,2016/03/21 04:20:23.898,12533,13049,516,7009,7319,310,,1132404
4,uhf,2016/03/21 05:48:37.621,2016/03/21 05:52:10.541,18343,18556,212,10618,10831,213,,-17253
5,lband3,2016/03/21 06:11:35.971,2016/03/21 07:44:25.971,19722,25292,5570,11996,15574,3578,,17333440
6,lband2,2016/03/21 06:56:09.496,2016/03/21 08:28:59.496,22395,27965,5570,14030,17545,3515,5,17717740
7,xband,2016/03/21 07:24:14.088,2016/03/21 07:28:42.991,24080,24349,268,14363,14631,268,5 or 6,2489646
8,lband3,2016/03/21 07:47:42.011,2016/03/21 09:20:32.011,25488,31058,5570,15771,19351,3580,6,17321240
9,lband2,2016/03/21 08:32:29.096,2016/03/21 10:05:19.096,28175,33745,5570,17545,21062,3517,8,17705540
10,lband3,2016/03/21 09:23:07.365,2016/03/21 10:55:57.365,31213,36783,5570,19506,23089,3583,9,17302940
11,lband2,2016/03/21 10:07:56.295,2016/03/21 11:40:46.295,33902,39472,5570,21062,24582,3520,10,17687240
12,xband,2016/03/21 10:32:52.811,2016/03/21 10:40:42.451,35398,35868,469,21704,22174,470,10 or 11,4339980
13,lband3,2016/03/21 10:58:48.009,2016/03/21 12:31:38.009,36954,42524,5570,23260,26846,3586,11,17284640
14,lband2,2016/03/21 11:43:28.577,2016/03/21 13:16:18.577,39634,45204,5570,24582,28105,3523,13,17668940
15,xband,2016/03/21 12:07:27.748,2016/03/21 12:16:45.473,41073,41631,557,25395,25953,558,13 or 14,5152572
16,lband3,2016/03/21 12:35:57.015,2016/03/21 14:08:47.015,42783,48353,5570,27105,30694,3589,14,17266340
17,lband2,2016/03/21 13:20:14.078,2016/03/21 14:53:04.078,45440,51010,5570,28105,31632,3527,16,17644540
18,lband3,2016/03/21 14:16:08.752,2016/03/21 15:48:58.752,48794,54364,5570,31135,34728,3593,17,17241940
19,lband2,2016/03/21 14:59:52.544,2016/03/21 16:32:42.544,51418,56988,5570,31782,35377,3595,18,17229740
20,lband3,2016/03/21 15:57:31.245,2016/03/21 17:30:21.245,54877,60447,5570,35162,38694,3532,19,17614040
21,lband2,2016/03/21 16:41:27.130,2016/03/21 18:14:17.130,57513,63083,5570,35902,39500,3598,20,17211440
22,lband3,2016/03/21 17:36:11.559,2016/03/21 19:09:01.559,60797,66367,5570,38694,42229,3535,21,17595740
23,lband2,2016/03/21 18:20:37.403,2016/03/21 19:53:27.403,63463,69033,5570,39880,43481,3601,22,17193140
24,lband3,2016/03/21 19:12:38.031,2016/03/21 20:45:28.031,66584,72154,5570,42229,45768,3539,23,17571340
25,lband2,2016/03/21 19:57:18.360,2016/03/21 21:30:08.360,69264,74834,5570,43712,47316,3604,24,17174840
26,lband3,2016/03/21 20:48:08.688,2016/03/21 22:20:58.688,72314,77884,5570,45768,49309,3541,25,17559140
27,uhf,2016/03/21 22:21:27.494,2016/03/21 22:28:50.277,77913,78356,442,49309,49309,0,,2489217
28,xband,2016/03/21 23:36:06.446,2016/03/21 23:45:54.203,82392,82980,587,52854,52854,0,,8781192
29,uhf,2016/03/21 23:55:04.304,2016/03/22 00:04:27.329,83530,84093,563,52854,52854,0,,3163497
