ID, Job Type,Start Time (UTCG),Stop Time (UTCG),Duration (sec)
0,sun,2016/03/22 00:07:48.817,2016/03/22 01:06:56.593,3547.776
1,sun,2016/03/22 01:39:33.186,2016/03/22 02:38:44.106,3550.9190000000003
2,sun,2016/03/22 03:11:17.579,2016/03/22 04:10:31.658,3554.079
3,sun,2016/03/22 04:43:01.986,2016/03/22 05:42:19.244,3557.258
4,sun,2016/03/22 06:14:46.416,2016/03/22 07:14:06.873,3560.4570000000003
5,sun,2016/03/22 07:46:30.868,2016/03/22 08:45:54.539,3563.671
6,sun,2016/03/22 09:18:15.341,2016/03/22 10:17:42.244,3566.903
7,sun,2016/03/22 10:49:59.837,2016/03/22 11:49:29.986,3570.1490000000003
8,sun,2016/03/22 12:21:44.357,2016/03/22 13:21:17.766,3573.409
9,sun,2016/03/22 13:53:28.901,2016/03/22 14:53:05.590,3576.688
10,sun,2016/03/22 15:25:13.467,2016/03/22 16:24:53.446,3579.9790000000003
11,sun,2016/03/22 16:56:58.064,2016/03/22 17:56:41.346,3583.283
12,sun,2016/03/22 18:28:42.682,2016/03/22 19:28:29.284,3586.6020000000003
13,sun,2016/03/22 20:00:27.332,2016/03/22 21:00:17.264,3589.9320000000002
14,sun,2016/03/22 21:32:12.006,2016/03/22 22:32:05.279,3593.2729999999997
15,sun,2016/03/22 23:03:56.707,2016/03/23 00:03:53.334,3596.627
